termist/wace.vcd
$date
	Wed Sep 07 14:01:22 2022
$end
$version
	Icarus Verilog
$end
$timescale
	1ps
$end
$scope module mips_tb $end
$var reg 1 ! clk $end
$var reg 1 " rst $end
$scope module mips $end
$var wire 4 # axi_arid [3:0] $end
$var wire 1 $ axi_arready $end
$var wire 3 % axi_arsize [2:0] $end
$var wire 4 & axi_awid [3:0] $end
$var wire 1 ' axi_awready $end
$var wire 3 ( axi_awsize [2:0] $end
$var wire 4 ) axi_bid [3:0] $end
$var wire 2 * axi_bresp [1:0] $end
$var wire 1 + axi_bvalid $end
$var wire 32 , axi_rdata [31:0] $end
$var wire 4 - axi_rid [3:0] $end
$var wire 1 . axi_rlast $end
$var wire 2 / axi_rresp [1:0] $end
$var wire 1 0 axi_rvalid $end
$var wire 1 1 axi_wready $end
$var wire 1 ! clk $end
$var wire 32 2 i_m_req_addr [31:0] $end
$var wire 32 3 i_m_req_data [31:0] $end
$var wire 4 4 i_m_req_mask [3:0] $end
$var wire 1 5 i_m_req_valid $end
$var wire 32 6 i_req_data [31:0] $end
$var wire 4 7 i_req_mask [3:0] $end
$var wire 32 8 n_m_req_addr [31:0] $end
$var wire 32 9 n_m_req_data [31:0] $end
$var wire 4 : n_m_req_mask [3:0] $end
$var wire 1 ; n_m_req_valid $end
$var wire 1 " rst $end
$var wire 1 < n_m_resp_valid $end
$var wire 32 = n_m_resp_data [31:0] $end
$var wire 1 > i_resp_valid $end
$var wire 32 ? i_resp_data [31:0] $end
$var wire 1 @ i_req_valid $end
$var wire 32 A i_req_addr [31:0] $end
$var wire 1 B i_m_resp_valid $end
$var wire 32 C i_m_resp_data [31:0] $end
$var wire 1 D d_resp_valid $end
$var wire 32 E d_resp_data [31:0] $end
$var wire 1 F d_req_valid $end
$var wire 4 G d_req_mask [3:0] $end
$var wire 32 H d_req_data [31:0] $end
$var wire 32 I d_req_addr [31:0] $end
$var wire 1 J d_m_resp_valid $end
$var wire 32 K d_m_resp_data [31:0] $end
$var wire 1 L d_m_req_valid $end
$var wire 4 M d_m_req_mask [3:0] $end
$var wire 32 N d_m_req_data [31:0] $end
$var wire 32 O d_m_req_addr [31:0] $end
$var wire 27 P ctrl_sig [26:0] $end
$var wire 32 Q ctrl_inst [31:0] $end
$var wire 1 R axi_wvalid $end
$var wire 4 S axi_wstrb [3:0] $end
$var wire 1 T axi_wlast $end
$var wire 32 U axi_wdata [31:0] $end
$var wire 1 V axi_rready $end
$var wire 1 W axi_bready $end
$var wire 1 X axi_awvalid $end
$var wire 8 Y axi_awlen [7:0] $end
$var wire 29 Z axi_awaddr [28:0] $end
$var wire 1 [ axi_arvalid $end
$var wire 8 \ axi_arlen [7:0] $end
$var wire 29 ] axi_araddr [28:0] $end
$scope module axi_drive_inst $end
$var wire 1 ^ ar_fire $end
$var wire 1 _ aw_fire $end
$var wire 4 ` axi_arid [3:0] $end
$var wire 1 $ axi_arready $end
$var wire 3 a axi_arsize [2:0] $end
$var wire 1 [ axi_arvalid $end
$var wire 4 b axi_awid [3:0] $end
$var wire 1 ' axi_awready $end
$var wire 3 c axi_awsize [2:0] $end
$var wire 1 X axi_awvalid $end
$var wire 4 d axi_bid [3:0] $end
$var wire 1 W axi_bready $end
$var wire 2 e axi_bresp [1:0] $end
$var wire 1 + axi_bvalid $end
$var wire 32 f axi_rdata [31:0] $end
$var wire 4 g axi_rid [3:0] $end
$var wire 1 . axi_rlast $end
$var wire 2 h axi_rresp [1:0] $end
$var wire 1 0 axi_rvalid $end
$var wire 1 1 axi_wready $end
$var wire 1 i b_fire $end
$var wire 1 ! clk $end
$var wire 1 J d_resp_valid $end
$var wire 32 j i_req_addr [31:0] $end
$var wire 32 k i_req_data [31:0] $end
$var wire 4 l i_req_mask [3:0] $end
$var wire 1 5 i_req_valid $end
$var wire 1 B i_resp_valid $end
$var wire 1 m isRbst $end
$var wire 1 n isRead $end
$var wire 1 o isWrit $end
$var wire 32 p n_req_addr [31:0] $end
$var wire 32 q n_req_data [31:0] $end
$var wire 4 r n_req_mask [3:0] $end
$var wire 1 ; n_req_valid $end
$var wire 1 < n_resp_valid $end
$var wire 1 s r_fire $end
$var wire 1 " rst $end
$var wire 1 t w_fire $end
$var wire 1 u isWbst $end
$var wire 1 v isStop $end
$var wire 1 w isIdle $end
$var wire 1 L d_req_valid $end
$var wire 4 x d_req_mask [3:0] $end
$var wire 32 y d_req_data [31:0] $end
$var wire 32 z d_req_addr [31:0] $end
$var wire 1 T axi_wlast $end
$var reg 29 { axi_araddr [28:0] $end
$var reg 8 | axi_arlen [7:0] $end
$var reg 29 } axi_awaddr [28:0] $end
$var reg 8 ~ axi_awlen [7:0] $end
$var reg 1 V axi_rready $end
$var reg 32 !" axi_wdata [31:0] $end
$var reg 4 "" axi_wstrb [3:0] $end
$var reg 1 R axi_wvalid $end
$var reg 32 #" d_resp_data [31:0] $end
$var reg 32 $" i_resp_data [31:0] $end
$var reg 32 %" n_resp_data [31:0] $end
$var reg 6 &" off [5:0] $end
$var reg 4 '" state [3:0] $end
$upscope $end
$scope module ctrl $end
$var wire 6 (" opcode [5:0] $end
$var wire 32 )" inst [31:0] $end
$var wire 5 *" funt3 [4:0] $end
$var wire 5 +" funt2 [4:0] $end
$var wire 6 ," funt1 [5:0] $end
$var reg 27 -" controlSignal [26:0] $end
$upscope $end
$scope module dcache $end
$var wire 1 ! clk $end
$var wire 1 L m_req_valid $end
$var wire 32 ." m_resp_data [31:0] $end
$var wire 1 J m_resp_valid $end
$var wire 1 " rst $end
$var wire 10 /" setIdx [9:0] $end
$var wire 1 D resp_valid $end
$var wire 1 F req_valid $end
$var wire 4 0" req_mask [3:0] $end
$var wire 32 1" req_data [31:0] $end
$var wire 32 2" req_addr [31:0] $end
$var wire 1 3" offBits $end
$var wire 12 4" lineIdx [11:0] $end
$var parameter 74 5" LINE_NUM $end
$var parameter 32 6" LINE_NUM_B $end
$var parameter 35 7" LINE_WIDTH $end
$var parameter 32 8" OFF_MASK $end
$var parameter 32 9" OFF_NUM $end
$var parameter 32 :" OFF_NUM_B $end
$var parameter 42 ;" SET_NUM $end
$var parameter 32 <" WAY_NUM_B $end
$var reg 1 =" hit $end
$var reg 2 >" hit_target [1:0] $end
$var reg 32 ?" m_req_addr [31:0] $end
$var reg 32 @" m_req_data [31:0] $end
$var reg 4 A" m_req_mask [3:0] $end
$var reg 2 B" rand [1:0] $end
$var reg 32 C" resp_data [31:0] $end
$var reg 9 D" rf_cur [8:0] $end
$var reg 2 E" rf_target [1:0] $end
$var reg 3 F" state [2:0] $end
$var integer 32 G" i [31:0] $end
$upscope $end
$scope module dp $end
$var wire 1 H" bubble $end
$var wire 1 ! clk $end
$var wire 27 I" ctrl [26:0] $end
$var wire 32 J" ctrl_inst [31:0] $end
$var wire 32 K" d_req_data [31:0] $end
$var wire 1 F d_req_valid $end
$var wire 32 L" d_resp_data [31:0] $end
$var wire 1 D d_resp_valid $end
$var wire 32 M" i_req_addr [31:0] $end
$var wire 32 N" i_req_data [31:0] $end
$var wire 4 O" i_req_mask [3:0] $end
$var wire 32 P" lshift [31:0] $end
$var wire 32 Q" n_req_addr [31:0] $end
$var wire 32 R" n_req_data [31:0] $end
$var wire 4 S" n_req_mask [3:0] $end
$var wire 1 ; n_req_valid $end
$var wire 32 T" n_resp_data [31:0] $end
$var wire 1 < n_resp_valid $end
$var wire 1 U" rs1_ex_hazard $end
$var wire 1 V" rs1_ma_hazard $end
$var wire 1 W" rs1_wb_hazard $end
$var wire 1 X" rs2_ex_hazard $end
$var wire 1 Y" rs2_ma_hazard $end
$var wire 1 Z" rs2_wb_hazard $end
$var wire 1 " rst $end
$var wire 1 [" stall $end
$var wire 32 \" rs2_data [31:0] $end
$var wire 5 ]" rs2_addr [4:0] $end
$var wire 32 ^" rs1_data [31:0] $end
$var wire 5 _" rs1_addr [4:0] $end
$var wire 5 `" rd_addr [4:0] $end
$var wire 32 a" next_pc [31:0] $end
$var wire 32 b" load [31:0] $end
$var wire 32 c" inst [31:0] $end
$var wire 32 d" immgen_out [31:0] $end
$var wire 1 > i_resp_valid $end
$var wire 32 e" i_resp_data [31:0] $end
$var wire 1 @ i_req_valid $end
$var wire 4 f" d_req_mask [3:0] $end
$var wire 32 g" d_req_addr [31:0] $end
$var wire 1 h" br_taken $end
$var wire 32 i" alu_out [31:0] $end
$var wire 1 j" alu_of $end
$var wire 32 k" alu_B [31:0] $end
$var wire 32 l" alu_A [31:0] $end
$var reg 32 m" aw_alu [31:0] $end
$var reg 27 n" aw_ctrl [26:0] $end
$var reg 32 o" aw_inst [31:0] $end
$var reg 32 p" aw_mem [31:0] $end
$var reg 32 q" aw_pc [31:0] $end
$var reg 5 r" aw_rd_addr [4:0] $end
$var reg 27 s" de_ctrl [26:0] $end
$var reg 32 t" de_imm [31:0] $end
$var reg 32 u" de_inst [31:0] $end
$var reg 32 v" de_pc [31:0] $end
$var reg 5 w" de_rd_addr [4:0] $end
$var reg 32 x" de_rs1 [31:0] $end
$var reg 32 y" de_rs2 [31:0] $end
$var reg 32 z" ea_alu [31:0] $end
$var reg 1 {" ea_br_taken $end
$var reg 27 |" ea_ctrl [26:0] $end
$var reg 32 }" ea_inst [31:0] $end
$var reg 1 ~" ea_of $end
$var reg 32 !# ea_pc [31:0] $end
$var reg 5 "# ea_rd_addr [4:0] $end
$var reg 32 ## ea_rs2 [31:0] $end
$var reg 32 $# fd_inst [31:0] $end
$var reg 32 %# fd_pc [31:0] $end
$var reg 32 &# pc [31:0] $end
$var reg 32 '# wb_data [31:0] $end
$var reg 1 (# wb_en $end
$scope module alu $end
$var wire 32 )# A [31:0] $end
$var wire 32 *# B [31:0] $end
$var wire 5 +# alu_op [4:0] $end
$var wire 5 ,# shamt [4:0] $end
$var reg 1 -# cmp $end
$var reg 32 .# out [31:0] $end
$var reg 1 j" overflow $end
$var reg 32 /# sum [31:0] $end
$upscope $end
$scope module br $end
$var wire 3 0# br_type [2:0] $end
$var wire 1 1# ez $end
$var wire 1 2# ge $end
$var wire 1 3# gz $end
$var wire 1 4# le $end
$var wire 1 5# lz $end
$var wire 1 6# neq $end
$var wire 32 7# rs1 [31:0] $end
$var wire 32 8# rs2 [31:0] $end
$var wire 1 h" taken $end
$var wire 1 9# neg $end
$var wire 1 :# eq $end
$upscope $end
$scope module ig $end
$var wire 3 ;# imm_type [2:0] $end
$var wire 32 <# inst [31:0] $end
$var wire 32 =# pc [31:0] $end
$var wire 32 ># Uimm [31:0] $end
$var wire 32 ?# Simm [31:0] $end
$var wire 32 @# Jimm [31:0] $end
$var wire 32 A# Iimm [31:0] $end
$var wire 32 B# Himm [31:0] $end
$var wire 32 C# Bimm [31:0] $end
$var reg 32 D# out [31:0] $end
$upscope $end
$scope module rf $end
$var wire 1 ! clk $end
$var wire 5 E# raddr1 [4:0] $end
$var wire 5 F# raddr2 [4:0] $end
$var wire 5 G# waddr [4:0] $end
$var wire 32 H# wdata [31:0] $end
$var wire 1 (# wen $end
$var wire 32 I# rdata2 [31:0] $end
$var wire 32 J# rdata1 [31:0] $end
$upscope $end
$upscope $end
$scope module icache $end
$var wire 1 ! clk $end
$var wire 32 K# req_addr [31:0] $end
$var wire 32 L# req_data [31:0] $end
$var wire 4 M# req_mask [3:0] $end
$var wire 1 @ req_valid $end
$var wire 1 " rst $end
$var wire 1 > resp_valid $end
$var reg 32 N# resp_data [31:0] $end
$var reg 1 > state $end
$upscope $end
$upscope $end
$upscope $end
$enddefinitions $end
$comment Show the parameter values. $end
$dumpall
b10 <"
b10000000000 ;"
b100 :"
b10000 9"
b11111111111111111111111000000000 8"
b1000000000000 7"
b1100 6"
b1000000000000 5"
$end
#0
$dumpvars
bx N#
b0 M#
b0 L#
b0x00 K#
bx J#
bx I#
bx H#
bx G#
bx F#
bx E#
b0 D#
bx00 C#
bx0000000000000000 B#
bx A#
bx00 @#
bx ?#
b0xxxxxxxxxxxxxxxx >#
bx =#
bx <#
bx ;#
x:#
x9#
bx 8#
bx 7#
x6#
x5#
x4#
x3#
x2#
x1#
b0 0#
bx /#
bx .#
x-#
bx ,#
b0 +#
bx *#
bx )#
0(#
bx '#
b0 &#
bx %#
bx $#
bx ##
bx "#
bx !#
x~"
bx }"
b0 |"
0{"
bx z"
bx y"
bx x"
bx w"
bx v"
b0 u"
bx t"
b0 s"
bx r"
bx q"
bx p"
bx o"
b0 n"
bx m"
bx l"
bx k"
xj"
bx i"
0h"
bx g"
b0 f"
bx e"
b0 d"
b0 c"
bx b"
b0x00 a"
bx `"
bx _"
bx ^"
bx ]"
bx \"
x["
0Z"
0Y"
0X"
0W"
0V"
0U"
bz T"
bz S"
bz R"
bz Q"
bx P"
b0 O"
b0 N"
b0x00 M"
bx L"
bx K"
bx J"
bx I"
0H"
bx G"
bx F"
bx E"
bx D"
bx C"
bx B"
bx A"
bx @"
bx ?"
bx >"
x="
bx 4"
03"
bx 2"
bx 1"
b0 0"
bx00 /"
bz ."
bx -"
bx ,"
bx +"
bx *"
bx )"
bx ("
bx '"
bx &"
bz %"
bz $"
bz #"
bx ""
bx !"
b0xxxx ~
bx }
b0xxxx |
bx {
bx z
bx y
bx x
xw
xv
xu
xt
xs
bz r
bz q
bz p
xo
xn
xm
bz l
bz k
bz j
xi
bz h
bz g
bz f
bz e
bz d
b10 c
b1 b
b10 a
b10 `
x_
x^
bx ]
b0xxxx \
x[
bx Z
b0xxxx Y
xX
xW
xV
bx U
xT
bx S
xR
bx Q
bx P
bx O
bx N
bx M
xL
bz K
xJ
bx I
bx H
b0 G
0F
bx E
xD
bz C
xB
b0x00 A
x@
bx ?
1>
bz =
x<
z;
bz :
bz 9
bz 8
b0 7
b0 6
z5
bz 4
bz 3
bz 2
z1
z0
bz /
z.
bz -
bz ,
z+
bz *
bz )
b10 (
z'
b1 &
b10 %
z$
b10 #
1"
0!
$end
#1
b0 `"
b100 ;#
b1100100001100000000000100 P
b1100100001100000000000100 -"
b1100100001100000000000100 I"
b1111 \
b1111 |
b0 ]
b0 {
b0 Y
b0 ~
b0 Z
b0 }
0^
b100 A
b100 M"
b100 K#
b100 a"
0L
b0 ^"
b0 J#
b0 \"
b0 I#
0_
0i
0[
0n
1J
1@
0["
b0 _"
b0 E#
b0 ]"
b0 F#
b0 A#
b0 >#
b0 B#
b0 C#
b0 ?#
bx0000000000000000000000000000 @#
b0 *"
b0 +"
b0 ,"
b0 ("
1B
0X
0o
0W
0m
b0 B"
0="
1D
b0 F"
b0 Q
b0 )"
b0 J"
b0 $#
b0 <#
0T
b0 &"
1<
1w
0v
0u
b0 '"
b1000000000000 G"
1!
#2
0!
bx c"
0"
#3
0j"
0-#
b0 i"
b0 .#
b0 /#
bx d"
bx D#
b0 ,#
xU"
xX"
bx `"
12#
03#
b0 k"
b0 *#
b0 l"
b0 )#
bx ^"
bx J#
bx \"
bx I#
05#
14#
0s
0t
bx _"
bx E#
bx ]"
bx F#
bx A#
b0xxxxxxxxxxxxxxxx >#
bx0000000000000000 B#
bx00 C#
bx ?#
bx *"
bx +"
bx ,"
bx ("
b0xxxxxxxxxxxxxxxxxxxxxxxxxx00 @#
0@
1["
06#
09#
11#
b110 +#
0V
0R
bx Q
bx )"
bx J"
bx $#
bx <#
b0 %#
b0 =#
b1 B"
0>
b100 &#
1:#
b0 y"
b0 8#
b0 x"
b0 7#
b0 w"
b0 t"
b1100100001100000000000100 s"
b0 }"
1!
#4
0!
#5
b1000 A
b1000 M"
b1000 K#
b1000 a"
1@
0["
b100000000000011111111111111111 c"
1>
b100000000000011111111111111111 ?
b100000000000011111111111111111 e"
b100000000000011111111111111111 N#
b10 B"
1!
#6
0!
#7
b1 ;#
xj"
bx i"
bx .#
x-#
bx /#
b11111111111111111111111111111111 d"
b11111111111111111111111111111111 D#
b100001000000000000000100 P
b100001000000000000000100 -"
b100001000000000000000100 I"
0U"
bx ,#
b1 `"
x2#
x3#
bx k"
bx *#
b0 ^"
b0 J#
bx l"
bx )#
x5#
x4#
b0 /"
b0 _"
b0 E#
b1 ]"
b1 F#
b11111111111111111111111111111111 A#
b1111111111111111 >#
b11111111111111110000000000000000 B#
b11111111111111111111111111111100 C#
b11111111111111111111111111111111 ?#
b1111111111111111100 @#
b0 *"
b1 +"
b111111 ,"
b1000 ("
0@
1["
x6#
x9#
x1#
b100000000000011111111111111111 Q
b100000000000011111111111111111 )"
b100000000000011111111111111111 J"
b100000000000011111111111111111 $#
b100000000000011111111111111111 <#
b100 %#
b100 =#
b11 B"
0>
b1000 &#
bx y"
bx 8#
x:#
bx x"
bx 7#
bx w"
bx t"
bx u"
b0 v"
b0 "#
0~"
b0 I
b0 2"
b0 g"
b0 z"
b0 H
b0 1"
b0 K"
b0 ##
b1100100001100000000000100 |"
b0 o"
1!
#8
0!
#9
b1100 A
b1100 M"
b1100 K#
b1100 a"
1@
0["
b100000000000101111111111111111 c"
1>
b100000000000101111111111111111 ?
b100000000000101111111111111111 e"
b100000000000101111111111111111 N#
b0 B"
1!
#10
0!
#11
b11111111111111111111111111111111 i"
b11111111111111111111111111111111 .#
0j"
0-#
b11111111111111111111111111111111 /#
b0 '#
b0 H#
1(#
b11111 ,#
b10 `"
12#
03#
b11111111111111111111111111111111 k"
b11111111111111111111111111111111 *#
05#
14#
0X"
b0 l"
b0 )#
xY"
bx00 /"
b10 ]"
b10 F#
b10111111111111111100 @#
b10 +"
0@
1["
09#
11#
b0 +#
b100000000000101111111111111111 Q
b100000000000101111111111111111 )"
b100000000000101111111111111111 J"
b100000000000101111111111111111 $#
b100000000000101111111111111111 <#
b1000 %#
b1000 =#
b1 B"
0>
b1100 &#
b0 x"
b0 7#
b1 w"
b11111111111111111111111111111111 t"
b100001000000000000000100 s"
b100000000000011111111111111111 u"
b100 v"
bx "#
x~"
bx I
bx 2"
bx g"
bx z"
bx H
bx 1"
bx K"
bx ##
bx }"
b0 !#
b0 r"
b0 G#
b0 m"
b1100100001100000000000100 n"
1!
#12
0!
#13
b10000 A
b10000 M"
b10000 K#
b10000 a"
1@
0["
b100000000000110000000000000001 c"
1>
b100000000000110000000000000001 ?
b100000000000110000000000000001 e"
b100000000000110000000000000001 N#
b10 B"
1!
#14
0!
#15
b1 d"
b1 D#
bx '#
bx H#
b11 `"
0X"
0Y"
b1111111100 /"
xZ"
b11 ]"
b11 F#
b1 A#
b1 >#
b10000000000000000 B#
b100 C#
b0 ?#
b11000000000000000100 @#
b11 +"
b1 ,"
0@
1["
b100000000000110000000000000001 Q
b100000000000110000000000000001 )"
b100000000000110000000000000001 J"
b100000000000110000000000000001 $#
b100000000000110000000000000001 <#
b1100 %#
b1100 =#
b11 B"
0>
b10000 &#
b10 w"
b100000000000101111111111111111 u"
b1000 v"
b1 "#
0~"
b11111111111111111111111111111111 I
b11111111111111111111111111111111 2"
b11111111111111111111111111111111 g"
b11111111111111111111111111111111 z"
b100001000000000000000100 |"
b100000000000011111111111111111 }"
b100 !#
bx r"
bx G#
bx m"
bx o"
b0 q"
1!
#16
0!
#17
b10100 A
b10100 M"
b10100 K#
b10100 a"
1@
0["
b10000010001000000100000 c"
1>
b10000010001000000100000 ?
b10000010001000000100000 e"
b10000010001000000100000 N#
b0 B"
1!
#18
0!
#19
b1 i"
b1 .#
b0 ;#
0j"
0-#
b1 /#
b0 d"
b0 D#
b101000000000000000000100 P
b101000000000000000000100 -"
b101000000000000000000100 I"
b11111111111111111111111111111111 '#
b11111111111111111111111111111111 H#
1V"
b1 ,#
b10 `"
b1 k"
b1 *#
bx ^"
bx J#
0X"
1Z"
b10 _"
b10 E#
b1 ]"
b1 F#
b1000000100000 A#
b1000000100000 >#
b10000001000000000000000000000 B#
b100000010000000 C#
b1000001000100000010000000 @#
b10 *"
b1 +"
b100000 ,"
b0 ("
0@
1["
b10000010001000000100000 Q
b10000010001000000100000 )"
b10000010001000000100000 J"
b10000010001000000100000 $#
b10000010001000000100000 <#
b10000 %#
b10000 =#
b1 B"
0>
b10100 &#
b11 w"
b1 t"
b100000000000110000000000000001 u"
b1100 v"
b10 "#
b100000000000101111111111111111 }"
b1000 !#
b1 r"
b1 G#
b11111111111111111111111111111111 m"
b100001000000000000000100 n"
b100000000000011111111111111111 o"
b100 q"
1!
#20
b11111111111111111111111111111111 \"
b11111111111111111111111111111111 I#
0!
#21
b11000 A
b11000 M"
b11000 K#
b11000 a"
1@
0["
b10000010001100000100000 c"
1>
b10000010001100000100000 ?
b10000010001100000100000 e"
b10000010001100000100000 N#
b10 B"
1!
#22
0!
#23
b11111111111111111111111111111110 i"
b11111111111111111111111111111110 .#
0j"
1-#
b11111111111111111111111111111110 /#
b11111 ,#
b11 `"
02#
b11111111111111111111111111111111 k"
b11111111111111111111111111111111 *#
15#
1U"
0V"
b0 /"
1W"
0Z"
b1100000100000 A#
b1100000100000 >#
b11000001000000000000000000000 B#
b110000010000000 C#
b1000001000110000010000000 @#
0@
1["
06#
b11111111111111111111111111111111 l"
b11111111111111111111111111111111 )#
19#
01#
b10000010001100000100000 Q
b10000010001100000100000 )"
b10000010001100000100000 J"
b10000010001100000100000 $#
b10000010001100000100000 <#
b10100 %#
b10100 =#
b11 B"
0>
b11000 &#
1:#
b11111111111111111111111111111111 y"
b11111111111111111111111111111111 8#
b11111111111111111111111111111111 x"
b11111111111111111111111111111111 7#
b10 w"
b0 t"
b101000000000000000000100 s"
b10000010001000000100000 u"
b10000 v"
b11 "#
b1 I
b1 2"
b1 g"
b1 z"
b100000000000110000000000000001 }"
b1100 !#
b10 r"
b10 G#
b100000000000101111111111111111 o"
b1000 q"
1!
#24
b11111111111111111111111111111111 ^"
b11111111111111111111111111111111 J#
0!
#25
b11100 A
b11100 M"
b11100 K#
b11100 a"
1@
0["
b11000110001100000100000 c"
1>
b11000110001100000100000 ?
b11000110001100000100000 e"
b11000110001100000100000 N#
b0 B"
1!
#26
0!
#27
b11111111111111111111111111111101 i"
b11111111111111111111111111111101 .#
b11111111111111111111111111111101 /#
b1 '#
b1 H#
1Z"
1X"
bx ^"
bx J#
bx \"
bx I#
1U"
0V"
b1111111100 /"
1W"
b11 _"
b11 E#
b11 ]"
b11 F#
b1100011000110000010000000 @#
b11 *"
b11 +"
0@
1["
b11111111111111111111111111111110 l"
b11111111111111111111111111111110 )#
16#
b11000110001100000100000 Q
b11000110001100000100000 )"
b11000110001100000100000 J"
b11000110001100000100000 $#
b11000110001100000100000 <#
b11000 %#
b11000 =#
b1 B"
0>
b11100 &#
0:#
b11111111111111111111111111111110 x"
b11111111111111111111111111111110 7#
b11 w"
b10000010001100000100000 u"
b10100 v"
b10 "#
b11111111111111111111111111111110 I
b11111111111111111111111111111110 2"
b11111111111111111111111111111110 g"
b11111111111111111111111111111110 z"
b11111111111111111111111111111111 H
b11111111111111111111111111111111 1"
b11111111111111111111111111111111 K"
b11111111111111111111111111111111 ##
b101000000000000000000100 |"
b10000010001000000100000 }"
b10000 !#
b11 r"
b11 G#
b1 m"
b100000000000110000000000000001 o"
b1100 q"
1!
#28
b1 ^"
b1 J#
b1 \"
b1 I#
0!
#29
b100000 A
b100000 M"
b100000 K#
b100000 a"
1@
0["
b111100000001001111111110101010 c"
1>
b111100000001001111111110101010 ?
b111100000001001111111110101010 e"
b111100000001001111111110101010 N#
b10 B"
1!
#30
0!
#31
b11111111101010100000000000000000 d"
b11111111101010100000000000000000 D#
b11111111111111111111111111111010 i"
b11111111111111111111111111111010 .#
b11 ;#
b11010110000000000100 P
b11010110000000000100 -"
b11010110000000000100 I"
b11111111111111111111111111111010 /#
b11111111111111111111111111111110 '#
b11111111111111111111111111111110 H#
0U"
0X"
b100 `"
b11101 ,#
b0 ^"
b0 J#
bx \"
bx I#
b11111111111111111111111111111101 k"
b11111111111111111111111111111101 *#
0V"
0Y"
0W"
0Z"
b0 _"
b0 E#
b100 ]"
b100 F#
b11111111111111111111111110101010 A#
b1111111110101010 >#
b11111111101010100000000000000000 B#
b11111111111111111111111010101000 C#
b11111111111111111111111111111110 ?#
b100111111111010101000 @#
b0 *"
b100 +"
b101010 ,"
b1111 ("
0@
1["
06#
b11111111111111111111111111111101 l"
b11111111111111111111111111111101 )#
b111100000001001111111110101010 Q
b111100000001001111111110101010 )"
b111100000001001111111110101010 J"
b111100000001001111111110101010 $#
b111100000001001111111110101010 <#
b11100 %#
b11100 =#
b11 B"
0>
b100000 &#
1:#
b11111111111111111111111111111101 y"
b11111111111111111111111111111101 8#
b11111111111111111111111111111101 x"
b11111111111111111111111111111101 7#
b11000110001100000100000 u"
b11000 v"
b11 "#
b11111111111111111111111111111101 I
b11111111111111111111111111111101 2"
b11111111111111111111111111111101 g"
b11111111111111111111111111111101 z"
b10000010001100000100000 }"
b10100 !#
b10 r"
b10 G#
b11111111111111111111111111111110 m"
b101000000000000000000100 n"
b10000010001000000100000 o"
b10000 q"
1!
#32
0!
#33
b100100 A
b100100 M"
b100100 K#
b100100 a"
1@
0["
b100000100001000000100001100111 c"
1>
b100000100001000000100001100111 ?
b100000100001000000100001100111 e"
b100000100001000000100001100111 N#
b0 B"
1!
#34
0!
#35
b1 ;#
0j"
b100001100111 d"
b100001100111 D#
b100001000000000000000100 P
b100001000000000000000100 -"
b100001000000000000000100 I"
b11111111101010100000000000000000 i"
b11111111101010100000000000000000 .#
b10101100000000000011100 /#
b11111111111111111111111111111101 '#
b11111111111111111111111111111101 H#
1U"
b0 ,#
12#
bx ^"
bx J#
b11111111101010100000000000000000 k"
b11111111101010100000000000000000 *#
05#
1X"
b100 _"
b100 E#
b100001100111 A#
b100001100111 >#
b1000011001110000000000000000 B#
b10000110011100 C#
b1 ?#
b10000100000010000110011100 @#
b100 *"
b100111 ,"
b1000 ("
0@
1["
b11100 l"
b11100 )#
x6#
09#
11#
b1011 +#
b100000100001000000100001100111 Q
b100000100001000000100001100111 )"
b100000100001000000100001100111 J"
b100000100001000000100001100111 $#
b100000100001000000100001100111 <#
b100000 %#
b100000 =#
b1 B"
0>
b100100 &#
bx y"
bx 8#
x:#
b0 x"
b0 7#
b100 w"
b11111111101010100000000000000000 t"
b11010110000000000100 s"
b111100000001001111111110101010 u"
b11100 v"
b11111111111111111111111111111010 I
b11111111111111111111111111111010 2"
b11111111111111111111111111111010 g"
b11111111111111111111111111111010 z"
b11111111111111111111111111111101 H
b11111111111111111111111111111101 1"
b11111111111111111111111111111101 K"
b11111111111111111111111111111101 ##
b11000110001100000100000 }"
b11000 !#
b11 r"
b11 G#
b11111111111111111111111111111101 m"
b10000010001100000100000 o"
b10100 q"
1!
#36
0!
#37
b101000 A
b101000 M"
b101000 K#
b101000 a"
1@
0["
b100001000010000000100000 c"
1>
b100001000010000000100000 ?
b100001000010000000100000 e"
b100001000010000000100000 N#
b10 B"
1!
#38
0!
#39
b0 ;#
0j"
b0 d"
b0 D#
b101000000000000000000100 P
b101000000000000000000100 -"
b101000000000000000000100 I"
b11111111101010100000100001100111 i"
b11111111101010100000100001100111 .#
1-#
b11111111101010100000100001100111 /#
b11111111111111111111111111111010 '#
b11111111111111111111111111111010 H#
b111 ,#
02#
b100001100111 k"
b100001100111 *#
15#
b11111111101010100000000000000000 l"
b11111111101010100000000000000000 )#
1V"
1Y"
b0 /"
b10000000100000 A#
b10000000100000 >#
b100000001000000000000000000000 B#
b1000000010000000 C#
b0 ?#
b10000100001000000010000000 @#
b100000 ,"
b0 ("
0@
1["
06#
19#
01#
b0 +#
b100001000010000000100000 Q
b100001000010000000100000 )"
b100001000010000000100000 J"
b100001000010000000100000 $#
b100001000010000000100000 <#
b100100 %#
b100100 =#
b11 B"
0>
b101000 &#
1:#
b11111111101010100000000000000000 y"
b11111111101010100000000000000000 8#
b11111111101010100000000000000000 x"
b11111111101010100000000000000000 7#
b100001100111 t"
b100001000000000000000100 s"
b100000100001000000100001100111 u"
b100000 v"
b100 "#
b11111111101010100000000000000000 I
b11111111101010100000000000000000 2"
b11111111101010100000000000000000 g"
b11111111101010100000000000000000 z"
bx H
bx 1"
bx K"
bx ##
b11010110000000000100 |"
b111100000001001111111110101010 }"
b11100 !#
b11111111111111111111111111111010 m"
b11000110001100000100000 o"
b11000 q"
1!
#40
0!
#41
b101100 A
b101100 M"
b101100 K#
b101100 a"
1@
0["
bx c"
1>
bx ?
bx e"
bx N#
b0 B"
1!
#42
0!
#43
b11111111010101000001000011001110 i"
b11111111010101000001000011001110 .#
b11111111010101000001000011001110 /#
b11111111101010100000000000000000 '#
b11111111101010100000000000000000 H#
xV"
xU"
xY"
xX"
bx `"
b11111111101010100000100001100111 k"
b11111111101010100000100001100111 *#
b10000 /"
xW"
xZ"
bx _"
bx E#
bx ]"
bx F#
bx A#
b0xxxxxxxxxxxxxxxx >#
bx0000000000000000 B#
bx00 C#
bx ?#
b0xxxxxxxxxxxxxxxxxxxxxxxxxx00 @#
bx *"
bx +"
bx ,"
bx ("
0@
1["
b11111111101010100000100001100111 l"
b11111111101010100000100001100111 )#
bx Q
bx )"
bx J"
bx $#
bx <#
b101000 %#
b101000 =#
b1 B"
0>
b101100 &#
b11111111101010100000100001100111 y"
b11111111101010100000100001100111 8#
1:#
b11111111101010100000100001100111 x"
b11111111101010100000100001100111 7#
b0 t"
b101000000000000000000100 s"
b100001000010000000100000 u"
b100100 v"
b11111111101010100000100001100111 I
b11111111101010100000100001100111 2"
b11111111101010100000100001100111 g"
b11111111101010100000100001100111 z"
b11111111101010100000000000000000 H
b11111111101010100000000000000000 1"
b11111111101010100000000000000000 K"
b11111111101010100000000000000000 ##
b100001000000000000000100 |"
b100000100001000000100001100111 }"
b100000 !#
b100 r"
b100 G#
b11111111101010100000000000000000 m"
b11010110000000000100 n"
b111100000001001111111110101010 o"
b11100 q"
1!
#44
0!
